%YAML 1.1
%TAG !u! tag:unity3d.com,2011:
--- !u!1045 &1
EditorBuildSettings:
  m_ObjectHideFlags: 0
  serializedVersion: 2
  m_Scenes:
  - enabled: 1
    path: Assets/Scenes/MainMenu.unity
    guid: cd8e3881f431f314ca976d7e3adcc529
  - enabled: 1
    path: Assets/Scenes/TorqueExplained.unity
    guid: 941d569b48312384c881a2915d4e9696
  - enabled: 1
    path: Assets/Scenes/Equilibrium.unity
    guid: a077c70450068c54a9aeeaf64f702332
  - enabled: 1
    path: Assets/Scenes/Tutorial.unity
    guid: c6d42a26ed1688c4b96652e34f622533
  m_configObjects: {}
