%YAML 1.1
%TAG !u! tag:unity3d.com,2011:
--- !u!1 &180074
GameObject:
  m_ObjectHideFlags: 0
  m_PrefabParentObject: {fileID: 0}
  m_PrefabInternal: {fileID: 100100000}
  serializedVersion: 5
  m_Component:
  - component: {fileID: 406774}
  - component: {fileID: 11424178}
  m_Layer: 0
  m_Name: Proxy
  m_TagString: Untagged
  m_Icon: {fileID: 0}
  m_NavMeshLayer: 0
  m_StaticEditorFlags: 0
  m_IsActive: 1
--- !u!4 &406774
Transform:
  m_ObjectHideFlags: 1
  m_PrefabParentObject: {fileID: 0}
  m_PrefabInternal: {fileID: 100100000}
  m_GameObject: {fileID: 180074}
  m_LocalRotation: {x: 0, y: 0, z: 0, w: 1}
  m_LocalPosition: {x: 0, y: 0, z: 0}
  m_LocalScale: {x: 1, y: 1, z: 1}
  m_Children: []
  m_Father: {fileID: 0}
  m_RootOrder: 0
  m_LocalEulerAnglesHint: {x: 0, y: 0, z: 0}
--- !u!114 &11424178
MonoBehaviour:
  m_ObjectHideFlags: 1
  m_PrefabParentObject: {fileID: 0}
  m_PrefabInternal: {fileID: 100100000}
  m_GameObject: {fileID: 180074}
  m_Enabled: 1
  m_EditorHideFlags: 0
  m_Script: {fileID: 11500000, guid: 5be6f12c07f95d1428e57bf61b01facc, type: 3}
  m_Name: 
  m_EditorClassIdentifier: 
  HTTPProxyURL: 
  HTTPProxyPort: 0
  HTTPProxyUsername: 
  HTTPProxyPassword: 
  HTTPProxyURLProtocol: 
  HTTPSProxyURL: 
  HTTPSProxyPort: 0
  HTTPSProxyUsername: 
  HTTPSProxyPassword: 
  HTTPSProxyURLProtocol: 
  EnableOnAwake: 0
--- !u!1001 &100100000
Prefab:
  m_ObjectHideFlags: 1
  serializedVersion: 2
  m_Modification:
    m_TransformParent: {fileID: 0}
    m_Modifications: []
    m_RemovedComponents: []
  m_ParentPrefab: {fileID: 0}
  m_RootGameObject: {fileID: 180074}
  m_IsPrefabParent: 1
