%YAML 1.1
%TAG !u! tag:unity3d.com,2011:
--- !u!1 &143110
GameObject:
  m_ObjectHideFlags: 0
  m_PrefabParentObject: {fileID: 0}
  m_PrefabInternal: {fileID: 100100000}
  serializedVersion: 5
  m_Component:
  - component: {fileID: 425052}
  - component: {fileID: 11482354}
  m_Layer: 0
  m_Name: Sequencer
  m_TagString: Untagged
  m_Icon: {fileID: 0}
  m_NavMeshLayer: 0
  m_StaticEditorFlags: 0
  m_IsActive: 1
--- !u!4 &425052
Transform:
  m_ObjectHideFlags: 1
  m_PrefabParentObject: {fileID: 0}
  m_PrefabInternal: {fileID: 100100000}
  m_GameObject: {fileID: 143110}
  m_LocalRotation: {x: 0, y: 0, z: 0, w: 1}
  m_LocalPosition: {x: 0, y: 0, z: 0}
  m_LocalScale: {x: 1, y: 1, z: 1}
  m_Children: []
  m_Father: {fileID: 0}
  m_RootOrder: 0
  m_LocalEulerAnglesHint: {x: 0, y: 0, z: 0}
--- !u!114 &11482354
MonoBehaviour:
  m_ObjectHideFlags: 1
  m_PrefabParentObject: {fileID: 0}
  m_PrefabInternal: {fileID: 100100000}
  m_GameObject: {fileID: 143110}
  m_Enabled: 1
  m_EditorHideFlags: 0
  m_Script: {fileID: 11500000, guid: cde98428401e9e44aa043c8e87219b1b, type: 3}
  m_Name: 
  m_EditorClassIdentifier: 
  Sequences:
  - Text: Hi there!
    RTVoiceNameWindows: 
    RTVoiceNameMac: 
    RTVoiceNameAndroid: 
    RTVoiceNameIOS: 
    RTVoiceNameWSA: 
    Mode: 0
    Source: {fileID: 0}
    Rate: 1
    Pitch: 1
    Volume: 1
    initalized: 1
  - Text: Howdy!
    RTVoiceNameWindows: 
    RTVoiceNameMac: 
    RTVoiceNameAndroid: 
    RTVoiceNameIOS: 
    RTVoiceNameWSA: 
    Mode: 0
    Source: {fileID: 0}
    Rate: 1
    Pitch: 1
    Volume: 1
    initalized: 1
  - Text: How are you?
    RTVoiceNameWindows: 
    RTVoiceNameMac: 
    RTVoiceNameAndroid: 
    RTVoiceNameIOS: 
    RTVoiceNameWSA: 
    Mode: 0
    Source: {fileID: 0}
    Rate: 1
    Pitch: 1
    Volume: 1
    initalized: 1
  - Text: Fine and you?
    RTVoiceNameWindows: 
    RTVoiceNameMac: 
    RTVoiceNameAndroid: 
    RTVoiceNameIOS: 
    RTVoiceNameWSA: 
    Mode: 0
    Source: {fileID: 0}
    Rate: 1
    Pitch: 1
    Volume: 1
    initalized: 1
  Culture: en
  Delay: 0
  PlayOnStart: 0
--- !u!1001 &100100000
Prefab:
  m_ObjectHideFlags: 1
  serializedVersion: 2
  m_Modification:
    m_TransformParent: {fileID: 0}
    m_Modifications: []
    m_RemovedComponents: []
  m_ParentPrefab: {fileID: 0}
  m_RootGameObject: {fileID: 143110}
  m_IsPrefabParent: 1
